Bootstrap Confidence Intervals
…
---

## Back to our example!

.pull-left[
.small[

```r
B <- 1000
map_df(1:B, ~ bootstrap_residual(e, y_hat, model, Auto))
```

```
## # A tibble: 1,000 x 2
##    `(Intercept)` horsepower
##            <dbl>      <dbl>
##  1          40.3     -0.165
##  2          40.3     -0.162
##  3          39.3     -0.156
##  4          38.5     -0.145
##  5          38.9     -0.150
##  6          41.0     -0.168
##  7          40.4     -0.164
##  8          38.4     -0.144
##  9          39.2     -0.153
## 10          40.4     -0.163
## # … with 990 more rows
```
…
